../../Middlewares/ST/touchgfx/framework/include/touchgfx/Screen.hpp:103:18:virtual void touchgfx::Screen::afterTransition()	0	static
../../Middlewares/ST/touchgfx/framework/include/touchgfx/Screen.hpp:143:18:virtual void touchgfx::Screen::handleTickEvent()	0	static
../../Middlewares/ST/touchgfx/framework/include/touchgfx/Screen.hpp:153:18:virtual void touchgfx::Screen::handleKeyEvent(uint8_t)	0	static
../../TouchGFX/gui/include/gui/screen1_screen/Screen1View.hpp:16:17:Screen1View::~Screen1View()	0	static
C:/Users/anton/Documents/Titoma/FW/GIT/TTM_final/TTM_FINAL/TouchGFX/gui/src/screen1_screen/Screen1View.cpp:21:6:virtual void Screen1View::tearDownScreen()	0	static
C:/Users/anton/Documents/Titoma/FW/GIT/TTM_final/TTM_FINAL/TouchGFX/gui/src/screen1_screen/Screen1View.cpp:16:6:virtual void Screen1View::setupScreen()	0	static
C:/Users/anton/Documents/Titoma/FW/GIT/TTM_final/TTM_FINAL/TouchGFX/gui/src/screen1_screen/Screen1View.cpp:26:6:virtual void Screen1View::open_door()	24	static
../../TouchGFX/gui/include/gui/screen1_screen/Screen1View.hpp:16:17:virtual Screen1View::~Screen1View()	8	static
C:/Users/anton/Documents/Titoma/FW/GIT/TTM_final/TTM_FINAL/TouchGFX/gui/src/screen1_screen/Screen1View.cpp:8:1:Screen1View::Screen1View()	16	static
C:/Users/anton/Documents/Titoma/FW/GIT/TTM_final/TTM_FINAL/TouchGFX/gui/src/screen1_screen/Screen1View.cpp:43:6:void Screen1View::updateTemp()	56	static
